{
    "16.10.8": {
        "add": [
            "rhythmbox"
        ],
        "fix": {
            "libreoffice": "general",
            "virtualbox": "general",
            "youtube-dlg": "general"
        }
    },
    "16.10.6": {
        "fix": {
            "openshot-qt": "general",
            "darktable": "general"
        },
        "del": {
            "antiviral": "unstable"
        }
    },
    "16.10.5": {
        "fix": {
            "solaar": "new-source",
            "codecs": "general"
        }
    },
    "16.10.3": {
        "add": [
            "activity-log-manager",
            "alarm-clock-applet",
            "aisleriot",
            "d-feet",
            "hipchat",
            "pidgin",
            "youtube-dlg",
            "antiviral",
            "wine-devel",
            "cheese",
            "firefox"
        ],
        "fix": {
            "gnome-orca": "new-source",
            "playonlinux": "general"
        },
        "del": {
            "openshot-qt": "no-source"
        }
    },
    "16.10.2": {
        "fix": {
            "steam": "new-source"
        }
    },
    "16.10.0": {
        "add": [
            "atom",
            "clementine"
        ],
        "fix": {
            "torbrowser-launcher": "new-source",
            "spideroakone": "new-source"
        },
        "del": {
            "anoise": "no-source",
            "appgrid": "no-source",
            "aptik": "no-source",
            "audio-recorder": "no-source",
            "lutris": "no-source",
            "makemkv": "no-source",
            "nuvolaplayer": "no-source",
            "owncloud-client": "no-source",
            "playonlinux": "no-source",
            "recentnotifications": "no-source",
            "simplescreenrecorder": "no-source",
            "ubuntu-sdk": "no-source",
            "usc": "not-nice",
            "veracrypt": "no-source",
            "virtualbox": "no-source"
        }
    }
}
